^C:\USERS\PHILIP\DOCUMENTS\MERRIV\SRC\AMULET.CPP|C:\USERS\PHILIP\DOCUMENTS\MERRIV\SRC\ANIMATEDTEXTURE.CPP|C:\USERS\PHILIP\DOCUMENTS\MERRIV\SRC\BACKGROUNDELEMENT.CPP|C:\USERS\PHILIP\DOCUMENTS\MERRIV\SRC\BACKGROUNDMANAGER.CPP|C:\USERS\PHILIP\DOCUMENTS\MERRIV\SRC\BUBBLE.CPP|C:\USERS\PHILIP\DOCUMENTS\MERRIV\SRC\COIN.CPP|C:\USERS\PHILIP\DOCUMENTS\MERRIV\SRC\DRAWMANAGER.CPP|C:\USERS\PHILIP\DOCUMENTS\MERRIV\SRC\ENEMYMANAGER.CPP|C:\USERS\PHILIP\DOCUMENTS\MERRIV\SRC\ENGINE.CPP|C:\USERS\PHILIP\DOCUMENTS\MERRIV\SRC\FISHFOOD.CPP|C:\USERS\PHILIP\DOCUMENTS\MERRIV\SRC\FISHFOODPICKUP.CPP|C:\USERS\PHILIP\DOCUMENTS\MERRIV\SRC\GAMESTATE.CPP|C:\USERS\PHILIP\DOCUMENTS\MERRIV\SRC\GOLDENHARPOONPICKUP.CPP|C:\USERS\PHILIP\DOCUMENTS\MERRIV\SRC\HARPOON.CPP|C:\USERS\PHILIP\DOCUMENTS\MERRIV\SRC\ISTATE.CPP|C:\USERS\PHILIP\DOCUMENTS\MERRIV\SRC\JELLYPROJECTILE.CPP|C:\USERS\PHILIP\DOCUMENTS\MERRIV\SRC\JELLYROGER.CPP|C:\USERS\PHILIP\DOCUMENTS\MERRIV\SRC\LOSESTATE.CPP|C:\USERS\PHILIP\DOCUMENTS\MERRIV\SRC\MAIN.CPP|C:\USERS\PHILIP\DOCUMENTS\MERRIV\SRC\MENUSTATE.CPP|C:\USERS\PHILIP\DOCUMENTS\MERRIV\SRC\PIRANHA.CPP|C:\USERS\PHILIP\DOCUMENTS\MERRIV\SRC\PLAYER.CPP|C:\USERS\PHILIP\DOCUMENTS\MERRIV\SRC\SETTINGSSTATE.CPP|C:\USERS\PHILIP\DOCUMENTS\MERRIV\SRC\SHIP.CPP|C:\USERS\PHILIP\DOCUMENTS\MERRIV\SRC\SOUNDMANAGER.CPP|C:\USERS\PHILIP\DOCUMENTS\MERRIV\SRC\SPRITEMANAGER.CPP|C:\USERS\PHILIP\DOCUMENTS\MERRIV\SRC\STATEMANAGER.CPP|C:\USERS\PHILIP\DOCUMENTS\MERRIV\SRC\STDAFX.CPP|C:\USERS\PHILIP\DOCUMENTS\MERRIV\SRC\SWORDFISH.CPP|C:\USERS\PHILIP\DOCUMENTS\MERRIV\SRC\UTILITY.CPP|C:\USERS\PHILIP\DOCUMENTS\MERRIV\SRC\WINSTATE.CPP
C:\USERS\PHILIP\DOCUMENTS\MERRIV\TEMPORARY\X64\RELEASE\VC140.PDB
C:\USERS\PHILIP\DOCUMENTS\MERRIV\TEMPORARY\X64\RELEASE\MENUSTATE.OBJ
C:\USERS\PHILIP\DOCUMENTS\MERRIV\TEMPORARY\X64\RELEASE\MAIN.OBJ
C:\USERS\PHILIP\DOCUMENTS\MERRIV\TEMPORARY\X64\RELEASE\LOSESTATE.OBJ
C:\USERS\PHILIP\DOCUMENTS\MERRIV\TEMPORARY\X64\RELEASE\JELLYROGER.OBJ
C:\USERS\PHILIP\DOCUMENTS\MERRIV\TEMPORARY\X64\RELEASE\JELLYPROJECTILE.OBJ
C:\USERS\PHILIP\DOCUMENTS\MERRIV\TEMPORARY\X64\RELEASE\ISTATE.OBJ
C:\USERS\PHILIP\DOCUMENTS\MERRIV\TEMPORARY\X64\RELEASE\HARPOON.OBJ
C:\USERS\PHILIP\DOCUMENTS\MERRIV\TEMPORARY\X64\RELEASE\GOLDENHARPOONPICKUP.OBJ
C:\USERS\PHILIP\DOCUMENTS\MERRIV\TEMPORARY\X64\RELEASE\GAMESTATE.OBJ
C:\USERS\PHILIP\DOCUMENTS\MERRIV\TEMPORARY\X64\RELEASE\FISHFOODPICKUP.OBJ
C:\USERS\PHILIP\DOCUMENTS\MERRIV\TEMPORARY\X64\RELEASE\FISHFOOD.OBJ
C:\USERS\PHILIP\DOCUMENTS\MERRIV\TEMPORARY\X64\RELEASE\ENGINE.OBJ
C:\USERS\PHILIP\DOCUMENTS\MERRIV\TEMPORARY\X64\RELEASE\ENEMYMANAGER.OBJ
C:\USERS\PHILIP\DOCUMENTS\MERRIV\TEMPORARY\X64\RELEASE\DRAWMANAGER.OBJ
C:\USERS\PHILIP\DOCUMENTS\MERRIV\TEMPORARY\X64\RELEASE\COIN.OBJ
C:\USERS\PHILIP\DOCUMENTS\MERRIV\TEMPORARY\X64\RELEASE\BUBBLE.OBJ
C:\USERS\PHILIP\DOCUMENTS\MERRIV\TEMPORARY\X64\RELEASE\BACKGROUNDMANAGER.OBJ
C:\USERS\PHILIP\DOCUMENTS\MERRIV\TEMPORARY\X64\RELEASE\BACKGROUNDELEMENT.OBJ
C:\USERS\PHILIP\DOCUMENTS\MERRIV\TEMPORARY\X64\RELEASE\ANIMATEDTEXTURE.OBJ
C:\USERS\PHILIP\DOCUMENTS\MERRIV\TEMPORARY\X64\RELEASE\AMULET.OBJ
C:\USERS\PHILIP\DOCUMENTS\MERRIV\TEMPORARY\X64\RELEASE\WINSTATE.OBJ
C:\USERS\PHILIP\DOCUMENTS\MERRIV\TEMPORARY\X64\RELEASE\UTILITY.OBJ
C:\USERS\PHILIP\DOCUMENTS\MERRIV\TEMPORARY\X64\RELEASE\SWORDFISH.OBJ
C:\USERS\PHILIP\DOCUMENTS\MERRIV\TEMPORARY\X64\RELEASE\STDAFX.OBJ
C:\USERS\PHILIP\DOCUMENTS\MERRIV\TEMPORARY\X64\RELEASE\STATEMANAGER.OBJ
C:\USERS\PHILIP\DOCUMENTS\MERRIV\TEMPORARY\X64\RELEASE\SPRITEMANAGER.OBJ
C:\USERS\PHILIP\DOCUMENTS\MERRIV\TEMPORARY\X64\RELEASE\SOUNDMANAGER.OBJ
C:\USERS\PHILIP\DOCUMENTS\MERRIV\TEMPORARY\X64\RELEASE\SHIP.OBJ
C:\USERS\PHILIP\DOCUMENTS\MERRIV\TEMPORARY\X64\RELEASE\SETTINGSSTATE.OBJ
C:\USERS\PHILIP\DOCUMENTS\MERRIV\TEMPORARY\X64\RELEASE\PLAYER.OBJ
C:\USERS\PHILIP\DOCUMENTS\MERRIV\TEMPORARY\X64\RELEASE\PIRANHA.OBJ
^C:\USERS\PHILIP\DOCUMENTS\MERRIV\SRC\ANIMATEDTEXTURE.CPP
C:\USERS\PHILIP\DOCUMENTS\MERRIV\TEMPORARY\X64\RELEASE\VC140.PDB
^C:\USERS\PHILIP\DOCUMENTS\MERRIV\SRC\MAIN.CPP
C:\USERS\PHILIP\DOCUMENTS\MERRIV\TEMPORARY\X64\RELEASE\VC140.PDB
^C:\USERS\PHILIP\DOCUMENTS\MERRIV\SRC\STDAFX.CPP
C:\USERS\PHILIP\DOCUMENTS\MERRIV\TEMPORARY\X64\RELEASE\VC140.PDB
^C:\USERS\PHILIP\DOCUMENTS\MERRIV\SRC\UTILITY.CPP
C:\USERS\PHILIP\DOCUMENTS\MERRIV\TEMPORARY\X64\RELEASE\VC140.PDB
^C:\USERS\PHILIP\DOCUMENTS\MERRIV\SRC\ENEMYMANAGER.CPP|C:\USERS\PHILIP\DOCUMENTS\MERRIV\SRC\GAMESTATE.CPP|C:\USERS\PHILIP\DOCUMENTS\MERRIV\SRC\JELLYPROJECTILE.CPP
C:\USERS\PHILIP\DOCUMENTS\MERRIV\TEMPORARY\X64\RELEASE\VC140.PDB
C:\USERS\PHILIP\DOCUMENTS\MERRIV\TEMPORARY\X64\RELEASE\JELLYPROJECTILE.OBJ
C:\USERS\PHILIP\DOCUMENTS\MERRIV\TEMPORARY\X64\RELEASE\GAMESTATE.OBJ
^C:\USERS\PHILIP\DOCUMENTS\MERRIV\SRC\ENEMYMANAGER.CPP|C:\USERS\PHILIP\DOCUMENTS\MERRIV\SRC\GAMESTATE.CPP|C:\USERS\PHILIP\DOCUMENTS\MERRIV\SRC\JELLYPROJECTILE.CPP|C:\USERS\PHILIP\DOCUMENTS\MERRIV\SRC\JELLYROGER.CPP
C:\USERS\PHILIP\DOCUMENTS\MERRIV\TEMPORARY\X64\RELEASE\VC140.PDB
C:\USERS\PHILIP\DOCUMENTS\MERRIV\TEMPORARY\X64\RELEASE\JELLYROGER.OBJ
C:\USERS\PHILIP\DOCUMENTS\MERRIV\TEMPORARY\X64\RELEASE\JELLYPROJECTILE.OBJ
C:\USERS\PHILIP\DOCUMENTS\MERRIV\TEMPORARY\X64\RELEASE\GAMESTATE.OBJ
^C:\USERS\PHILIP\DOCUMENTS\MERRIV\SRC\ENEMYMANAGER.CPP|C:\USERS\PHILIP\DOCUMENTS\MERRIV\SRC\ENGINE.CPP|C:\USERS\PHILIP\DOCUMENTS\MERRIV\SRC\GAMESTATE.CPP
C:\USERS\PHILIP\DOCUMENTS\MERRIV\TEMPORARY\X64\RELEASE\VC140.PDB
C:\USERS\PHILIP\DOCUMENTS\MERRIV\TEMPORARY\X64\RELEASE\ENGINE.OBJ
C:\USERS\PHILIP\DOCUMENTS\MERRIV\TEMPORARY\X64\RELEASE\ENEMYMANAGER.OBJ
^C:\USERS\PHILIP\DOCUMENTS\MERRIV\SRC\ENEMYMANAGER.CPP|C:\USERS\PHILIP\DOCUMENTS\MERRIV\SRC\GAMESTATE.CPP
C:\USERS\PHILIP\DOCUMENTS\MERRIV\TEMPORARY\X64\RELEASE\VC140.PDB
C:\USERS\PHILIP\DOCUMENTS\MERRIV\TEMPORARY\X64\RELEASE\GAMESTATE.OBJ
C:\USERS\PHILIP\DOCUMENTS\MERRIV\TEMPORARY\X64\RELEASE\ENEMYMANAGER.OBJ
^C:\USERS\PHILIP\DOCUMENTS\MERRIV\SRC\ENEMYMANAGER.CPP|C:\USERS\PHILIP\DOCUMENTS\MERRIV\SRC\JELLYPROJECTILE.CPP
C:\USERS\PHILIP\DOCUMENTS\MERRIV\TEMPORARY\X64\RELEASE\VC140.PDB
C:\USERS\PHILIP\DOCUMENTS\MERRIV\TEMPORARY\X64\RELEASE\JELLYPROJECTILE.OBJ
C:\USERS\PHILIP\DOCUMENTS\MERRIV\TEMPORARY\X64\RELEASE\ENEMYMANAGER.OBJ
^C:\USERS\PHILIP\DOCUMENTS\MERRIV\SRC\BACKGROUNDMANAGER.CPP|C:\USERS\PHILIP\DOCUMENTS\MERRIV\SRC\SPRITEMANAGER.CPP
C:\USERS\PHILIP\DOCUMENTS\MERRIV\TEMPORARY\X64\RELEASE\VC140.PDB
C:\USERS\PHILIP\DOCUMENTS\MERRIV\TEMPORARY\X64\RELEASE\SPRITEMANAGER.OBJ
C:\USERS\PHILIP\DOCUMENTS\MERRIV\TEMPORARY\X64\RELEASE\BACKGROUNDMANAGER.OBJ
^C:\USERS\PHILIP\DOCUMENTS\MERRIV\SRC\BACKGROUNDMANAGER.CPP|C:\USERS\PHILIP\DOCUMENTS\MERRIV\SRC\GAMESTATE.CPP|C:\USERS\PHILIP\DOCUMENTS\MERRIV\SRC\SPRITEMANAGER.CPP
C:\USERS\PHILIP\DOCUMENTS\MERRIV\TEMPORARY\X64\RELEASE\VC140.PDB
C:\USERS\PHILIP\DOCUMENTS\MERRIV\TEMPORARY\X64\RELEASE\SPRITEMANAGER.OBJ
C:\USERS\PHILIP\DOCUMENTS\MERRIV\TEMPORARY\X64\RELEASE\GAMESTATE.OBJ
C:\USERS\PHILIP\DOCUMENTS\MERRIV\TEMPORARY\X64\RELEASE\BACKGROUNDMANAGER.OBJ
^C:\USERS\PHILIP\DOCUMENTS\MERRIV\SRC\AMULET.CPP|C:\USERS\PHILIP\DOCUMENTS\MERRIV\SRC\BACKGROUNDELEMENT.CPP|C:\USERS\PHILIP\DOCUMENTS\MERRIV\SRC\BACKGROUNDMANAGER.CPP|C:\USERS\PHILIP\DOCUMENTS\MERRIV\SRC\BUBBLE.CPP|C:\USERS\PHILIP\DOCUMENTS\MERRIV\SRC\COIN.CPP|C:\USERS\PHILIP\DOCUMENTS\MERRIV\SRC\DRAWMANAGER.CPP|C:\USERS\PHILIP\DOCUMENTS\MERRIV\SRC\ENEMYMANAGER.CPP|C:\USERS\PHILIP\DOCUMENTS\MERRIV\SRC\ENGINE.CPP|C:\USERS\PHILIP\DOCUMENTS\MERRIV\SRC\FISHFOOD.CPP|C:\USERS\PHILIP\DOCUMENTS\MERRIV\SRC\FISHFOODPICKUP.CPP|C:\USERS\PHILIP\DOCUMENTS\MERRIV\SRC\GAMESTATE.CPP|C:\USERS\PHILIP\DOCUMENTS\MERRIV\SRC\GOLDENHARPOONPICKUP.CPP|C:\USERS\PHILIP\DOCUMENTS\MERRIV\SRC\HARPOON.CPP|C:\USERS\PHILIP\DOCUMENTS\MERRIV\SRC\HIGHSCORESTATE.CPP|C:\USERS\PHILIP\DOCUMENTS\MERRIV\SRC\ISTATE.CPP|C:\USERS\PHILIP\DOCUMENTS\MERRIV\SRC\JELLYPROJECTILE.CPP|C:\USERS\PHILIP\DOCUMENTS\MERRIV\SRC\JELLYROGER.CPP|C:\USERS\PHILIP\DOCUMENTS\MERRIV\SRC\LOADINGSTATE.CPP|C:\USERS\PHILIP\DOCUMENTS\MERRIV\SRC\LOSESTATE.CPP|C:\USERS\PHILIP\DOCUMENTS\MERRIV\SRC\MENUSTATE.CPP|C:\USERS\PHILIP\DOCUMENTS\MERRIV\SRC\PIRANHA.CPP|C:\USERS\PHILIP\DOCUMENTS\MERRIV\SRC\PLAYER.CPP|C:\USERS\PHILIP\DOCUMENTS\MERRIV\SRC\POWERUPHUD.CPP|C:\USERS\PHILIP\DOCUMENTS\MERRIV\SRC\SCOREMANAGER.CPP|C:\USERS\PHILIP\DOCUMENTS\MERRIV\SRC\SETTINGSSTATE.CPP|C:\USERS\PHILIP\DOCUMENTS\MERRIV\SRC\SHIP.CPP|C:\USERS\PHILIP\DOCUMENTS\MERRIV\SRC\SOUNDMANAGER.CPP|C:\USERS\PHILIP\DOCUMENTS\MERRIV\SRC\SPRITEMANAGER.CPP|C:\USERS\PHILIP\DOCUMENTS\MERRIV\SRC\STATEMANAGER.CPP|C:\USERS\PHILIP\DOCUMENTS\MERRIV\SRC\SWORDFISH.CPP|C:\USERS\PHILIP\DOCUMENTS\MERRIV\SRC\WINSTATE.CPP
C:\USERS\PHILIP\DOCUMENTS\MERRIV\TEMPORARY\X64\RELEASE\VC140.PDB
C:\USERS\PHILIP\DOCUMENTS\MERRIV\TEMPORARY\X64\RELEASE\MENUSTATE.OBJ
C:\USERS\PHILIP\DOCUMENTS\MERRIV\TEMPORARY\X64\RELEASE\LOSESTATE.OBJ
C:\USERS\PHILIP\DOCUMENTS\MERRIV\TEMPORARY\X64\RELEASE\LOADINGSTATE.OBJ
C:\USERS\PHILIP\DOCUMENTS\MERRIV\TEMPORARY\X64\RELEASE\JELLYROGER.OBJ
C:\USERS\PHILIP\DOCUMENTS\MERRIV\TEMPORARY\X64\RELEASE\JELLYPROJECTILE.OBJ
C:\USERS\PHILIP\DOCUMENTS\MERRIV\TEMPORARY\X64\RELEASE\ISTATE.OBJ
C:\USERS\PHILIP\DOCUMENTS\MERRIV\TEMPORARY\X64\RELEASE\HIGHSCORESTATE.OBJ
C:\USERS\PHILIP\DOCUMENTS\MERRIV\TEMPORARY\X64\RELEASE\HARPOON.OBJ
C:\USERS\PHILIP\DOCUMENTS\MERRIV\TEMPORARY\X64\RELEASE\GOLDENHARPOONPICKUP.OBJ
C:\USERS\PHILIP\DOCUMENTS\MERRIV\TEMPORARY\X64\RELEASE\GAMESTATE.OBJ
C:\USERS\PHILIP\DOCUMENTS\MERRIV\TEMPORARY\X64\RELEASE\FISHFOODPICKUP.OBJ
C:\USERS\PHILIP\DOCUMENTS\MERRIV\TEMPORARY\X64\RELEASE\FISHFOOD.OBJ
C:\USERS\PHILIP\DOCUMENTS\MERRIV\TEMPORARY\X64\RELEASE\ENGINE.OBJ
C:\USERS\PHILIP\DOCUMENTS\MERRIV\TEMPORARY\X64\RELEASE\ENEMYMANAGER.OBJ
C:\USERS\PHILIP\DOCUMENTS\MERRIV\TEMPORARY\X64\RELEASE\DRAWMANAGER.OBJ
C:\USERS\PHILIP\DOCUMENTS\MERRIV\TEMPORARY\X64\RELEASE\COIN.OBJ
C:\USERS\PHILIP\DOCUMENTS\MERRIV\TEMPORARY\X64\RELEASE\BUBBLE.OBJ
C:\USERS\PHILIP\DOCUMENTS\MERRIV\TEMPORARY\X64\RELEASE\BACKGROUNDMANAGER.OBJ
C:\USERS\PHILIP\DOCUMENTS\MERRIV\TEMPORARY\X64\RELEASE\BACKGROUNDELEMENT.OBJ
C:\USERS\PHILIP\DOCUMENTS\MERRIV\TEMPORARY\X64\RELEASE\AMULET.OBJ
C:\USERS\PHILIP\DOCUMENTS\MERRIV\TEMPORARY\X64\RELEASE\WINSTATE.OBJ
C:\USERS\PHILIP\DOCUMENTS\MERRIV\TEMPORARY\X64\RELEASE\SWORDFISH.OBJ
C:\USERS\PHILIP\DOCUMENTS\MERRIV\TEMPORARY\X64\RELEASE\STATEMANAGER.OBJ
C:\USERS\PHILIP\DOCUMENTS\MERRIV\TEMPORARY\X64\RELEASE\SPRITEMANAGER.OBJ
C:\USERS\PHILIP\DOCUMENTS\MERRIV\TEMPORARY\X64\RELEASE\SOUNDMANAGER.OBJ
C:\USERS\PHILIP\DOCUMENTS\MERRIV\TEMPORARY\X64\RELEASE\SHIP.OBJ
C:\USERS\PHILIP\DOCUMENTS\MERRIV\TEMPORARY\X64\RELEASE\SETTINGSSTATE.OBJ
C:\USERS\PHILIP\DOCUMENTS\MERRIV\TEMPORARY\X64\RELEASE\SCOREMANAGER.OBJ
C:\USERS\PHILIP\DOCUMENTS\MERRIV\TEMPORARY\X64\RELEASE\POWERUPHUD.OBJ
C:\USERS\PHILIP\DOCUMENTS\MERRIV\TEMPORARY\X64\RELEASE\PLAYER.OBJ
C:\USERS\PHILIP\DOCUMENTS\MERRIV\TEMPORARY\X64\RELEASE\PIRANHA.OBJ
^C:\USERS\PHILIP\DOCUMENTS\MERRIV\SRC\AMULET.CPP
C:\USERS\PHILIP\DOCUMENTS\MERRIV\TEMPORARY\X64\RELEASE\VC140.PDB
^C:\USERS\PHILIP\DOCUMENTS\MERRIV\SRC\BACKGROUNDELEMENT.CPP
C:\USERS\PHILIP\DOCUMENTS\MERRIV\TEMPORARY\X64\RELEASE\VC140.PDB
^C:\USERS\PHILIP\DOCUMENTS\MERRIV\SRC\BACKGROUNDMANAGER.CPP
C:\USERS\PHILIP\DOCUMENTS\MERRIV\TEMPORARY\X64\RELEASE\VC140.PDB
^C:\USERS\PHILIP\DOCUMENTS\MERRIV\SRC\BUBBLE.CPP
C:\USERS\PHILIP\DOCUMENTS\MERRIV\TEMPORARY\X64\RELEASE\VC140.PDB
^C:\USERS\PHILIP\DOCUMENTS\MERRIV\SRC\COIN.CPP
C:\USERS\PHILIP\DOCUMENTS\MERRIV\TEMPORARY\X64\RELEASE\VC140.PDB
^C:\USERS\PHILIP\DOCUMENTS\MERRIV\SRC\DRAWMANAGER.CPP
C:\USERS\PHILIP\DOCUMENTS\MERRIV\TEMPORARY\X64\RELEASE\VC140.PDB
^C:\USERS\PHILIP\DOCUMENTS\MERRIV\SRC\FISHFOOD.CPP
C:\USERS\PHILIP\DOCUMENTS\MERRIV\TEMPORARY\X64\RELEASE\VC140.PDB
^C:\USERS\PHILIP\DOCUMENTS\MERRIV\SRC\FISHFOODPICKUP.CPP
C:\USERS\PHILIP\DOCUMENTS\MERRIV\TEMPORARY\X64\RELEASE\VC140.PDB
^C:\USERS\PHILIP\DOCUMENTS\MERRIV\SRC\GOLDENHARPOONPICKUP.CPP
C:\USERS\PHILIP\DOCUMENTS\MERRIV\TEMPORARY\X64\RELEASE\VC140.PDB
^C:\USERS\PHILIP\DOCUMENTS\MERRIV\SRC\ISTATE.CPP
C:\USERS\PHILIP\DOCUMENTS\MERRIV\TEMPORARY\X64\RELEASE\VC140.PDB
^C:\USERS\PHILIP\DOCUMENTS\MERRIV\SRC\POWERUPHUD.CPP
C:\USERS\PHILIP\DOCUMENTS\MERRIV\TEMPORARY\X64\RELEASE\VC140.PDB
^C:\USERS\PHILIP\DOCUMENTS\MERRIV\SRC\SHIP.CPP
C:\USERS\PHILIP\DOCUMENTS\MERRIV\TEMPORARY\X64\RELEASE\VC140.PDB
^C:\USERS\PHILIP\DOCUMENTS\MERRIV\SRC\SOUNDMANAGER.CPP
C:\USERS\PHILIP\DOCUMENTS\MERRIV\TEMPORARY\X64\RELEASE\VC140.PDB
^C:\USERS\PHILIP\DOCUMENTS\MERRIV\SRC\STATEMANAGER.CPP
C:\USERS\PHILIP\DOCUMENTS\MERRIV\TEMPORARY\X64\RELEASE\VC140.PDB
^C:\USERS\PHILIP\DOCUMENTS\MERRIV\SRC\ENGINE.CPP|C:\USERS\PHILIP\DOCUMENTS\MERRIV\SRC\GAMESTATE.CPP|C:\USERS\PHILIP\DOCUMENTS\MERRIV\SRC\HIGHSCORESTATE.CPP|C:\USERS\PHILIP\DOCUMENTS\MERRIV\SRC\LOADINGSTATE.CPP|C:\USERS\PHILIP\DOCUMENTS\MERRIV\SRC\LOSESTATE.CPP|C:\USERS\PHILIP\DOCUMENTS\MERRIV\SRC\MENUSTATE.CPP|C:\USERS\PHILIP\DOCUMENTS\MERRIV\SRC\SCOREMANAGER.CPP|C:\USERS\PHILIP\DOCUMENTS\MERRIV\SRC\SETTINGSSTATE.CPP|C:\USERS\PHILIP\DOCUMENTS\MERRIV\SRC\WINSTATE.CPP
C:\USERS\PHILIP\DOCUMENTS\MERRIV\TEMPORARY\X64\RELEASE\VC140.PDB
C:\USERS\PHILIP\DOCUMENTS\MERRIV\TEMPORARY\X64\RELEASE\WINSTATE.OBJ
C:\USERS\PHILIP\DOCUMENTS\MERRIV\TEMPORARY\X64\RELEASE\SETTINGSSTATE.OBJ
C:\USERS\PHILIP\DOCUMENTS\MERRIV\TEMPORARY\X64\RELEASE\SCOREMANAGER.OBJ
C:\USERS\PHILIP\DOCUMENTS\MERRIV\TEMPORARY\X64\RELEASE\MENUSTATE.OBJ
C:\USERS\PHILIP\DOCUMENTS\MERRIV\TEMPORARY\X64\RELEASE\LOSESTATE.OBJ
C:\USERS\PHILIP\DOCUMENTS\MERRIV\TEMPORARY\X64\RELEASE\LOADINGSTATE.OBJ
C:\USERS\PHILIP\DOCUMENTS\MERRIV\TEMPORARY\X64\RELEASE\HIGHSCORESTATE.OBJ
C:\USERS\PHILIP\DOCUMENTS\MERRIV\TEMPORARY\X64\RELEASE\GAMESTATE.OBJ
C:\USERS\PHILIP\DOCUMENTS\MERRIV\TEMPORARY\X64\RELEASE\ENGINE.OBJ
^C:\USERS\PHILIP\DOCUMENTS\MERRIV\SRC\LOADINGSTATE.CPP
C:\USERS\PHILIP\DOCUMENTS\MERRIV\TEMPORARY\X64\RELEASE\VC140.PDB
^C:\USERS\PHILIP\DOCUMENTS\MERRIV\SRC\SCOREMANAGER.CPP
C:\USERS\PHILIP\DOCUMENTS\MERRIV\TEMPORARY\X64\RELEASE\VC140.PDB
^C:\USERS\PHILIP\DOCUMENTS\MERRIV\SRC\ENGINE.CPP|C:\USERS\PHILIP\DOCUMENTS\MERRIV\SRC\GAMESTATE.CPP|C:\USERS\PHILIP\DOCUMENTS\MERRIV\SRC\LOSESTATE.CPP|C:\USERS\PHILIP\DOCUMENTS\MERRIV\SRC\SPRITEMANAGER.CPP|C:\USERS\PHILIP\DOCUMENTS\MERRIV\SRC\WINSTATE.CPP
C:\USERS\PHILIP\DOCUMENTS\MERRIV\TEMPORARY\X64\RELEASE\VC140.PDB
C:\USERS\PHILIP\DOCUMENTS\MERRIV\TEMPORARY\X64\RELEASE\WINSTATE.OBJ
C:\USERS\PHILIP\DOCUMENTS\MERRIV\TEMPORARY\X64\RELEASE\SPRITEMANAGER.OBJ
C:\USERS\PHILIP\DOCUMENTS\MERRIV\TEMPORARY\X64\RELEASE\LOSESTATE.OBJ
C:\USERS\PHILIP\DOCUMENTS\MERRIV\TEMPORARY\X64\RELEASE\GAMESTATE.OBJ
C:\USERS\PHILIP\DOCUMENTS\MERRIV\TEMPORARY\X64\RELEASE\ENGINE.OBJ
^C:\USERS\PHILIP\DOCUMENTS\MERRIV\SRC\PIRANHA.CPP|C:\USERS\PHILIP\DOCUMENTS\MERRIV\SRC\WINSTATE.CPP
C:\USERS\PHILIP\DOCUMENTS\MERRIV\TEMPORARY\X64\RELEASE\VC140.PDB
C:\USERS\PHILIP\DOCUMENTS\MERRIV\TEMPORARY\X64\RELEASE\WINSTATE.OBJ
^C:\USERS\PHILIP\DOCUMENTS\MERRIV\SRC\ENEMYMANAGER.CPP|C:\USERS\PHILIP\DOCUMENTS\MERRIV\SRC\GAMESTATE.CPP|C:\USERS\PHILIP\DOCUMENTS\MERRIV\SRC\PIRANHA.CPP
C:\USERS\PHILIP\DOCUMENTS\MERRIV\TEMPORARY\X64\RELEASE\VC140.PDB
C:\USERS\PHILIP\DOCUMENTS\MERRIV\TEMPORARY\X64\RELEASE\PIRANHA.OBJ
C:\USERS\PHILIP\DOCUMENTS\MERRIV\TEMPORARY\X64\RELEASE\GAMESTATE.OBJ
^C:\USERS\PHILIP\DOCUMENTS\MERRIV\SRC\ENEMYMANAGER.CPP|C:\USERS\PHILIP\DOCUMENTS\MERRIV\SRC\GAMESTATE.CPP|C:\USERS\PHILIP\DOCUMENTS\MERRIV\SRC\HARPOON.CPP|C:\USERS\PHILIP\DOCUMENTS\MERRIV\SRC\JELLYPROJECTILE.CPP|C:\USERS\PHILIP\DOCUMENTS\MERRIV\SRC\JELLYROGER.CPP|C:\USERS\PHILIP\DOCUMENTS\MERRIV\SRC\PIRANHA.CPP|C:\USERS\PHILIP\DOCUMENTS\MERRIV\SRC\PLAYER.CPP|C:\USERS\PHILIP\DOCUMENTS\MERRIV\SRC\SPRITEMANAGER.CPP|C:\USERS\PHILIP\DOCUMENTS\MERRIV\SRC\SWORDFISH.CPP
C:\USERS\PHILIP\DOCUMENTS\MERRIV\TEMPORARY\X64\RELEASE\VC140.PDB
C:\USERS\PHILIP\DOCUMENTS\MERRIV\TEMPORARY\X64\RELEASE\SWORDFISH.OBJ
C:\USERS\PHILIP\DOCUMENTS\MERRIV\TEMPORARY\X64\RELEASE\SPRITEMANAGER.OBJ
C:\USERS\PHILIP\DOCUMENTS\MERRIV\TEMPORARY\X64\RELEASE\PLAYER.OBJ
C:\USERS\PHILIP\DOCUMENTS\MERRIV\TEMPORARY\X64\RELEASE\PIRANHA.OBJ
C:\USERS\PHILIP\DOCUMENTS\MERRIV\TEMPORARY\X64\RELEASE\JELLYROGER.OBJ
C:\USERS\PHILIP\DOCUMENTS\MERRIV\TEMPORARY\X64\RELEASE\JELLYPROJECTILE.OBJ
C:\USERS\PHILIP\DOCUMENTS\MERRIV\TEMPORARY\X64\RELEASE\HARPOON.OBJ
C:\USERS\PHILIP\DOCUMENTS\MERRIV\TEMPORARY\X64\RELEASE\GAMESTATE.OBJ
C:\USERS\PHILIP\DOCUMENTS\MERRIV\TEMPORARY\X64\RELEASE\ENEMYMANAGER.OBJ
^C:\USERS\PHILIP\DOCUMENTS\MERRIV\SRC\ENEMYMANAGER.CPP
C:\USERS\PHILIP\DOCUMENTS\MERRIV\TEMPORARY\X64\RELEASE\VC140.PDB
^C:\USERS\PHILIP\DOCUMENTS\MERRIV\SRC\HARPOON.CPP
C:\USERS\PHILIP\DOCUMENTS\MERRIV\TEMPORARY\X64\RELEASE\VC140.PDB
^C:\USERS\PHILIP\DOCUMENTS\MERRIV\SRC\JELLYPROJECTILE.CPP
C:\USERS\PHILIP\DOCUMENTS\MERRIV\TEMPORARY\X64\RELEASE\VC140.PDB
^C:\USERS\PHILIP\DOCUMENTS\MERRIV\SRC\JELLYROGER.CPP
C:\USERS\PHILIP\DOCUMENTS\MERRIV\TEMPORARY\X64\RELEASE\VC140.PDB
^C:\USERS\PHILIP\DOCUMENTS\MERRIV\SRC\PIRANHA.CPP
C:\USERS\PHILIP\DOCUMENTS\MERRIV\TEMPORARY\X64\RELEASE\VC140.PDB
^C:\USERS\PHILIP\DOCUMENTS\MERRIV\SRC\PLAYER.CPP
C:\USERS\PHILIP\DOCUMENTS\MERRIV\TEMPORARY\X64\RELEASE\VC140.PDB
^C:\USERS\PHILIP\DOCUMENTS\MERRIV\SRC\SWORDFISH.CPP
C:\USERS\PHILIP\DOCUMENTS\MERRIV\TEMPORARY\X64\RELEASE\VC140.PDB
^C:\USERS\PHILIP\DOCUMENTS\MERRIV\SRC\ENGINE.CPP|C:\USERS\PHILIP\DOCUMENTS\MERRIV\SRC\GAMESTATE.CPP|C:\USERS\PHILIP\DOCUMENTS\MERRIV\SRC\HIGHSCORESTATE.CPP|C:\USERS\PHILIP\DOCUMENTS\MERRIV\SRC\LOSESTATE.CPP|C:\USERS\PHILIP\DOCUMENTS\MERRIV\SRC\MENUSTATE.CPP|C:\USERS\PHILIP\DOCUMENTS\MERRIV\SRC\SETTINGSSTATE.CPP|C:\USERS\PHILIP\DOCUMENTS\MERRIV\SRC\SPRITEMANAGER.CPP|C:\USERS\PHILIP\DOCUMENTS\MERRIV\SRC\WINSTATE.CPP
C:\USERS\PHILIP\DOCUMENTS\MERRIV\TEMPORARY\X64\RELEASE\VC140.PDB
C:\USERS\PHILIP\DOCUMENTS\MERRIV\TEMPORARY\X64\RELEASE\WINSTATE.OBJ
C:\USERS\PHILIP\DOCUMENTS\MERRIV\TEMPORARY\X64\RELEASE\SPRITEMANAGER.OBJ
C:\USERS\PHILIP\DOCUMENTS\MERRIV\TEMPORARY\X64\RELEASE\SETTINGSSTATE.OBJ
C:\USERS\PHILIP\DOCUMENTS\MERRIV\TEMPORARY\X64\RELEASE\MENUSTATE.OBJ
C:\USERS\PHILIP\DOCUMENTS\MERRIV\TEMPORARY\X64\RELEASE\LOSESTATE.OBJ
C:\USERS\PHILIP\DOCUMENTS\MERRIV\TEMPORARY\X64\RELEASE\HIGHSCORESTATE.OBJ
C:\USERS\PHILIP\DOCUMENTS\MERRIV\TEMPORARY\X64\RELEASE\GAMESTATE.OBJ
C:\USERS\PHILIP\DOCUMENTS\MERRIV\TEMPORARY\X64\RELEASE\ENGINE.OBJ
^C:\USERS\PHILIP\DOCUMENTS\MERRIV\SRC\ENGINE.CPP
C:\USERS\PHILIP\DOCUMENTS\MERRIV\TEMPORARY\X64\RELEASE\VC140.PDB
^C:\USERS\PHILIP\DOCUMENTS\MERRIV\SRC\HIGHSCORESTATE.CPP
C:\USERS\PHILIP\DOCUMENTS\MERRIV\TEMPORARY\X64\RELEASE\VC140.PDB
^C:\USERS\PHILIP\DOCUMENTS\MERRIV\SRC\LOSESTATE.CPP
C:\USERS\PHILIP\DOCUMENTS\MERRIV\TEMPORARY\X64\RELEASE\VC140.PDB
^C:\USERS\PHILIP\DOCUMENTS\MERRIV\SRC\MENUSTATE.CPP
C:\USERS\PHILIP\DOCUMENTS\MERRIV\TEMPORARY\X64\RELEASE\VC140.PDB
^C:\USERS\PHILIP\DOCUMENTS\MERRIV\SRC\SETTINGSSTATE.CPP
C:\USERS\PHILIP\DOCUMENTS\MERRIV\TEMPORARY\X64\RELEASE\VC140.PDB
^C:\USERS\PHILIP\DOCUMENTS\MERRIV\SRC\SPRITEMANAGER.CPP
C:\USERS\PHILIP\DOCUMENTS\MERRIV\TEMPORARY\X64\RELEASE\VC140.PDB
^C:\USERS\PHILIP\DOCUMENTS\MERRIV\SRC\WINSTATE.CPP
C:\USERS\PHILIP\DOCUMENTS\MERRIV\TEMPORARY\X64\RELEASE\VC140.PDB
^C:\USERS\PHILIP\DOCUMENTS\MERRIV\SRC\GAMESTATE.CPP
C:\USERS\PHILIP\DOCUMENTS\MERRIV\TEMPORARY\X64\RELEASE\VC140.PDB
C:\USERS\PHILIP\DOCUMENTS\MERRIV\TEMPORARY\X64\RELEASE\GAMESTATE.OBJ
