^G:\STANDARD MAPPAR\DOCUMENTS\MERRIV\TEMPORARY\X64\RELEASE\ANIMATEDTEXTURE.OBJ|G:\STANDARD MAPPAR\DOCUMENTS\MERRIV\TEMPORARY\X64\RELEASE\BACKGROUND.OBJ|G:\STANDARD MAPPAR\DOCUMENTS\MERRIV\TEMPORARY\X64\RELEASE\COLLIDER.OBJ|G:\STANDARD MAPPAR\DOCUMENTS\MERRIV\TEMPORARY\X64\RELEASE\COLLISIONMANAGER.OBJ|G:\STANDARD MAPPAR\DOCUMENTS\MERRIV\TEMPORARY\X64\RELEASE\DRAWMANAGER.OBJ|G:\STANDARD MAPPAR\DOCUMENTS\MERRIV\TEMPORARY\X64\RELEASE\ENGINE.OBJ|G:\STANDARD MAPPAR\DOCUMENTS\MERRIV\TEMPORARY\X64\RELEASE\GAMESTATE.OBJ|G:\STANDARD MAPPAR\DOCUMENTS\MERRIV\TEMPORARY\X64\RELEASE\HARPOON.OBJ|G:\STANDARD MAPPAR\DOCUMENTS\MERRIV\TEMPORARY\X64\RELEASE\ISTATE.OBJ|G:\STANDARD MAPPAR\DOCUMENTS\MERRIV\TEMPORARY\X64\RELEASE\MAIN.OBJ|G:\STANDARD MAPPAR\DOCUMENTS\MERRIV\TEMPORARY\X64\RELEASE\MAINOLD.OBJ|G:\STANDARD MAPPAR\DOCUMENTS\MERRIV\TEMPORARY\X64\RELEASE\MENUSTATE.OBJ|G:\STANDARD MAPPAR\DOCUMENTS\MERRIV\TEMPORARY\X64\RELEASE\PLAYER.OBJ|G:\STANDARD MAPPAR\DOCUMENTS\MERRIV\TEMPORARY\X64\RELEASE\SEABED.OBJ|G:\STANDARD MAPPAR\DOCUMENTS\MERRIV\TEMPORARY\X64\RELEASE\SOUNDMANAGER.OBJ|G:\STANDARD MAPPAR\DOCUMENTS\MERRIV\TEMPORARY\X64\RELEASE\SPRITE.OBJ|G:\STANDARD MAPPAR\DOCUMENTS\MERRIV\TEMPORARY\X64\RELEASE\SPRITEMANAGER.OBJ|G:\STANDARD MAPPAR\DOCUMENTS\MERRIV\TEMPORARY\X64\RELEASE\STATEMANAGER.OBJ|G:\STANDARD MAPPAR\DOCUMENTS\MERRIV\TEMPORARY\X64\RELEASE\STDAFX.OBJ|G:\STANDARD MAPPAR\DOCUMENTS\MERRIV\TEMPORARY\X64\RELEASE\SWORDFISH.OBJ|G:\STANDARD MAPPAR\DOCUMENTS\MERRIV\TEMPORARY\X64\RELEASE\TEXTUREMANAGER.OBJ|G:\STANDARD MAPPAR\DOCUMENTS\MERRIV\TEMPORARY\X64\RELEASE\UTILITY.OBJ
/OUT:"../_BINARY/MERMAIDRIVER64.EXE" /INCREMENTAL:NO /NOLOGO /LIBPATH:../EXTERNAL/LIB/ KERNEL32.LIB USER32.LIB GDI32.LIB WINSPOOL.LIB COMDLG32.LIB ADVAPI32.LIB SHELL32.LIB OLE32.LIB OLEAUT32.LIB UUID.LIB ODBC32.LIB ODBCCP32.LIB /MANIFEST /MANIFESTUAC:"level='asInvoker' uiAccess='false'" /manifest:embed /Debug /PDB:"../_BINARY/MERMAIDRIVER64.PDB" /SUBSYSTEM:CONSOLE /OPT:REF /OPT:ICF /LTCG:incremental /TLBID:1 /DYNAMICBASE /NXCOMPAT /IMPLIB:"../_BINARY/MERMAIDRIVER64.LIB" /MACHINE:X64 ../TEMPORARY/X64/RELEASE/ANIMATEDTEXTURE.OBJ../TEMPORARY/X64/RELEASE/BACKGROUND.OBJ../TEMPORARY/X64/RELEASE/COLLIDER.OBJ../TEMPORARY/X64/RELEASE/COLLISIONMANAGER.OBJ../TEMPORARY/X64/RELEASE/DRAWMANAGER.OBJ../TEMPORARY/X64/RELEASE/ENGINE.OBJ../TEMPORARY/X64/RELEASE/GAMESTATE.OBJ../TEMPORARY/X64/RELEASE/HARPOON.OBJ../TEMPORARY/X64/RELEASE/ISTATE.OBJ../TEMPORARY/X64/RELEASE/MAIN.OBJ../TEMPORARY/X64/RELEASE/MAINOLD.OBJ../TEMPORARY/X64/RELEASE/MENUSTATE.OBJ../TEMPORARY/X64/RELEASE/PLAYER.OBJ../TEMPORARY/X64/RELEASE/SEABED.OBJ../TEMPORARY/X64/RELEASE/SOUNDMANAGER.OBJ../TEMPORARY/X64/RELEASE/SPRITE.OBJ../TEMPORARY/X64/RELEASE/SPRITEMANAGER.OBJ../TEMPORARY/X64/RELEASE/STATEMANAGER.OBJ../TEMPORARY/X64/RELEASE/STDAFX.OBJ../TEMPORARY/X64/RELEASE/SWORDFISH.OBJ../TEMPORARY/X64/RELEASE/TEXTUREMANAGER.OBJ../TEMPORARY/X64/RELEASE/UTILITY.OBJ
^G:\STANDARD MAPPAR\DOCUMENTS\MERRIV\TEMPORARY\X64\RELEASE\AMULET.OBJ|G:\STANDARD MAPPAR\DOCUMENTS\MERRIV\TEMPORARY\X64\RELEASE\ANIMATEDTEXTURE.OBJ|G:\STANDARD MAPPAR\DOCUMENTS\MERRIV\TEMPORARY\X64\RELEASE\BACKGROUNDELEMENT.OBJ|G:\STANDARD MAPPAR\DOCUMENTS\MERRIV\TEMPORARY\X64\RELEASE\BACKGROUNDMANAGER.OBJ|G:\STANDARD MAPPAR\DOCUMENTS\MERRIV\TEMPORARY\X64\RELEASE\COIN.OBJ|G:\STANDARD MAPPAR\DOCUMENTS\MERRIV\TEMPORARY\X64\RELEASE\DRAWMANAGER.OBJ|G:\STANDARD MAPPAR\DOCUMENTS\MERRIV\TEMPORARY\X64\RELEASE\ENGINE.OBJ|G:\STANDARD MAPPAR\DOCUMENTS\MERRIV\TEMPORARY\X64\RELEASE\FISHFOOD.OBJ|G:\STANDARD MAPPAR\DOCUMENTS\MERRIV\TEMPORARY\X64\RELEASE\FISHFOODPICKUP.OBJ|G:\STANDARD MAPPAR\DOCUMENTS\MERRIV\TEMPORARY\X64\RELEASE\GAMESTATE.OBJ|G:\STANDARD MAPPAR\DOCUMENTS\MERRIV\TEMPORARY\X64\RELEASE\GOLDENHARPOONPICKUP.OBJ|G:\STANDARD MAPPAR\DOCUMENTS\MERRIV\TEMPORARY\X64\RELEASE\HARPOON.OBJ|G:\STANDARD MAPPAR\DOCUMENTS\MERRIV\TEMPORARY\X64\RELEASE\ISTATE.OBJ|G:\STANDARD MAPPAR\DOCUMENTS\MERRIV\TEMPORARY\X64\RELEASE\JELLYPROJECTILE.OBJ|G:\STANDARD MAPPAR\DOCUMENTS\MERRIV\TEMPORARY\X64\RELEASE\JELLYROGER.OBJ|G:\STANDARD MAPPAR\DOCUMENTS\MERRIV\TEMPORARY\X64\RELEASE\LOSESTATE.OBJ|G:\STANDARD MAPPAR\DOCUMENTS\MERRIV\TEMPORARY\X64\RELEASE\MAIN.OBJ|G:\STANDARD MAPPAR\DOCUMENTS\MERRIV\TEMPORARY\X64\RELEASE\MAINOLD.OBJ|G:\STANDARD MAPPAR\DOCUMENTS\MERRIV\TEMPORARY\X64\RELEASE\MENUSTATE.OBJ|G:\STANDARD MAPPAR\DOCUMENTS\MERRIV\TEMPORARY\X64\RELEASE\PLAYER.OBJ|G:\STANDARD MAPPAR\DOCUMENTS\MERRIV\TEMPORARY\X64\RELEASE\SOUNDMANAGER.OBJ|G:\STANDARD MAPPAR\DOCUMENTS\MERRIV\TEMPORARY\X64\RELEASE\SPRITEMANAGER.OBJ|G:\STANDARD MAPPAR\DOCUMENTS\MERRIV\TEMPORARY\X64\RELEASE\STATEMANAGER.OBJ|G:\STANDARD MAPPAR\DOCUMENTS\MERRIV\TEMPORARY\X64\RELEASE\STDAFX.OBJ|G:\STANDARD MAPPAR\DOCUMENTS\MERRIV\TEMPORARY\X64\RELEASE\SWORDFISH.OBJ|G:\STANDARD MAPPAR\DOCUMENTS\MERRIV\TEMPORARY\X64\RELEASE\UTILITY.OBJ|G:\STANDARD MAPPAR\DOCUMENTS\MERRIV\TEMPORARY\X64\RELEASE\WINSTATE.OBJ
/OUT:"../_BINARY/MERMAIDRIVER64.EXE" /INCREMENTAL:NO /NOLOGO /LIBPATH:../EXTERNAL/LIB/ KERNEL32.LIB USER32.LIB GDI32.LIB WINSPOOL.LIB COMDLG32.LIB ADVAPI32.LIB SHELL32.LIB OLE32.LIB OLEAUT32.LIB UUID.LIB ODBC32.LIB ODBCCP32.LIB /MANIFEST /MANIFESTUAC:"level='asInvoker' uiAccess='false'" /manifest:embed /Debug /PDB:"../_BINARY/MERMAIDRIVER64.PDB" /SUBSYSTEM:CONSOLE /OPT:REF /OPT:ICF /LTCG:incremental /TLBID:1 /DYNAMICBASE /NXCOMPAT /IMPLIB:"../_BINARY/MERMAIDRIVER64.LIB" /MACHINE:X64 ../TEMPORARY/X64/RELEASE/AMULET.OBJ../TEMPORARY/X64/RELEASE/ANIMATEDTEXTURE.OBJ../TEMPORARY/X64/RELEASE/BACKGROUNDELEMENT.OBJ../TEMPORARY/X64/RELEASE/BACKGROUNDMANAGER.OBJ../TEMPORARY/X64/RELEASE/COIN.OBJ../TEMPORARY/X64/RELEASE/DRAWMANAGER.OBJ../TEMPORARY/X64/RELEASE/ENGINE.OBJ../TEMPORARY/X64/RELEASE/FISHFOOD.OBJ../TEMPORARY/X64/RELEASE/FISHFOODPICKUP.OBJ../TEMPORARY/X64/RELEASE/GAMESTATE.OBJ../TEMPORARY/X64/RELEASE/GOLDENHARPOONPICKUP.OBJ../TEMPORARY/X64/RELEASE/HARPOON.OBJ../TEMPORARY/X64/RELEASE/ISTATE.OBJ../TEMPORARY/X64/RELEASE/JELLYPROJECTILE.OBJ../TEMPORARY/X64/RELEASE/JELLYROGER.OBJ../TEMPORARY/X64/RELEASE/LOSESTATE.OBJ../TEMPORARY/X64/RELEASE/MAIN.OBJ../TEMPORARY/X64/RELEASE/MAINOLD.OBJ../TEMPORARY/X64/RELEASE/MENUSTATE.OBJ../TEMPORARY/X64/RELEASE/PLAYER.OBJ../TEMPORARY/X64/RELEASE/SOUNDMANAGER.OBJ../TEMPORARY/X64/RELEASE/SPRITEMANAGER.OBJ../TEMPORARY/X64/RELEASE/STATEMANAGER.OBJ../TEMPORARY/X64/RELEASE/STDAFX.OBJ../TEMPORARY/X64/RELEASE/SWORDFISH.OBJ../TEMPORARY/X64/RELEASE/UTILITY.OBJ../TEMPORARY/X64/RELEASE/WINSTATE.OBJ
^C:\USERS\PHILIP\DOCUMENTS\MERRIV\TEMPORARY\X64\RELEASE\AMULET.OBJ|C:\USERS\PHILIP\DOCUMENTS\MERRIV\TEMPORARY\X64\RELEASE\ANIMATEDTEXTURE.OBJ|C:\USERS\PHILIP\DOCUMENTS\MERRIV\TEMPORARY\X64\RELEASE\BACKGROUNDELEMENT.OBJ|C:\USERS\PHILIP\DOCUMENTS\MERRIV\TEMPORARY\X64\RELEASE\BACKGROUNDMANAGER.OBJ|C:\USERS\PHILIP\DOCUMENTS\MERRIV\TEMPORARY\X64\RELEASE\BUBBLE.OBJ|C:\USERS\PHILIP\DOCUMENTS\MERRIV\TEMPORARY\X64\RELEASE\COIN.OBJ|C:\USERS\PHILIP\DOCUMENTS\MERRIV\TEMPORARY\X64\RELEASE\DRAWMANAGER.OBJ|C:\USERS\PHILIP\DOCUMENTS\MERRIV\TEMPORARY\X64\RELEASE\ENGINE.OBJ|C:\USERS\PHILIP\DOCUMENTS\MERRIV\TEMPORARY\X64\RELEASE\FISHFOOD.OBJ|C:\USERS\PHILIP\DOCUMENTS\MERRIV\TEMPORARY\X64\RELEASE\FISHFOODPICKUP.OBJ|C:\USERS\PHILIP\DOCUMENTS\MERRIV\TEMPORARY\X64\RELEASE\GAMESTATE.OBJ|C:\USERS\PHILIP\DOCUMENTS\MERRIV\TEMPORARY\X64\RELEASE\GOLDENHARPOONPICKUP.OBJ|C:\USERS\PHILIP\DOCUMENTS\MERRIV\TEMPORARY\X64\RELEASE\HARPOON.OBJ|C:\USERS\PHILIP\DOCUMENTS\MERRIV\TEMPORARY\X64\RELEASE\ISTATE.OBJ|C:\USERS\PHILIP\DOCUMENTS\MERRIV\TEMPORARY\X64\RELEASE\JELLYPROJECTILE.OBJ|C:\USERS\PHILIP\DOCUMENTS\MERRIV\TEMPORARY\X64\RELEASE\JELLYROGER.OBJ|C:\USERS\PHILIP\DOCUMENTS\MERRIV\TEMPORARY\X64\RELEASE\LOSESTATE.OBJ|C:\USERS\PHILIP\DOCUMENTS\MERRIV\TEMPORARY\X64\RELEASE\MAIN.OBJ|C:\USERS\PHILIP\DOCUMENTS\MERRIV\TEMPORARY\X64\RELEASE\MAINOLD.OBJ|C:\USERS\PHILIP\DOCUMENTS\MERRIV\TEMPORARY\X64\RELEASE\MENUSTATE.OBJ|C:\USERS\PHILIP\DOCUMENTS\MERRIV\TEMPORARY\X64\RELEASE\PIRANHA.OBJ|C:\USERS\PHILIP\DOCUMENTS\MERRIV\TEMPORARY\X64\RELEASE\PLAYER.OBJ|C:\USERS\PHILIP\DOCUMENTS\MERRIV\TEMPORARY\X64\RELEASE\SETTINGSSTATE.OBJ|C:\USERS\PHILIP\DOCUMENTS\MERRIV\TEMPORARY\X64\RELEASE\SHIP.OBJ|C:\USERS\PHILIP\DOCUMENTS\MERRIV\TEMPORARY\X64\RELEASE\SOUNDMANAGER.OBJ|C:\USERS\PHILIP\DOCUMENTS\MERRIV\TEMPORARY\X64\RELEASE\SPRITEMANAGER.OBJ|C:\USERS\PHILIP\DOCUMENTS\MERRIV\TEMPORARY\X64\RELEASE\STATEMANAGER.OBJ|C:\USERS\PHILIP\DOCUMENTS\MERRIV\TEMPORARY\X64\RELEASE\STDAFX.OBJ|C:\USERS\PHILIP\DOCUMENTS\MERRIV\TEMPORARY\X64\RELEASE\SWORDFISH.OBJ|C:\USERS\PHILIP\DOCUMENTS\MERRIV\TEMPORARY\X64\RELEASE\UTILITY.OBJ|C:\USERS\PHILIP\DOCUMENTS\MERRIV\TEMPORARY\X64\RELEASE\WINSTATE.OBJ
/OUT:"../_BINARY/MERMAIDRIVER64.EXE" /INCREMENTAL:NO /NOLOGO /LIBPATH:..\EXTERNAL\VLD\LIB\WIN64 /LIBPATH:../EXTERNAL/LIB/ KERNEL32.LIB USER32.LIB GDI32.LIB WINSPOOL.LIB COMDLG32.LIB ADVAPI32.LIB SHELL32.LIB OLE32.LIB OLEAUT32.LIB UUID.LIB ODBC32.LIB ODBCCP32.LIB /MANIFEST /MANIFESTUAC:"level='asInvoker' uiAccess='false'" /manifest:embed /Debug /PDB:"../_BINARY/MERMAIDRIVER64.PDB" /SUBSYSTEM:CONSOLE /OPT:REF /OPT:ICF /LTCG:incremental /TLBID:1 /DYNAMICBASE /NXCOMPAT /IMPLIB:"../_BINARY/MERMAIDRIVER64.LIB" /MACHINE:X64 ../TEMPORARY/X64/RELEASE/AMULET.OBJ../TEMPORARY/X64/RELEASE/ANIMATEDTEXTURE.OBJ../TEMPORARY/X64/RELEASE/BACKGROUNDELEMENT.OBJ../TEMPORARY/X64/RELEASE/BACKGROUNDMANAGER.OBJ../TEMPORARY/X64/RELEASE/BUBBLE.OBJ../TEMPORARY/X64/RELEASE/COIN.OBJ../TEMPORARY/X64/RELEASE/DRAWMANAGER.OBJ../TEMPORARY/X64/RELEASE/ENGINE.OBJ../TEMPORARY/X64/RELEASE/FISHFOOD.OBJ../TEMPORARY/X64/RELEASE/FISHFOODPICKUP.OBJ../TEMPORARY/X64/RELEASE/GAMESTATE.OBJ../TEMPORARY/X64/RELEASE/GOLDENHARPOONPICKUP.OBJ../TEMPORARY/X64/RELEASE/HARPOON.OBJ../TEMPORARY/X64/RELEASE/ISTATE.OBJ../TEMPORARY/X64/RELEASE/JELLYPROJECTILE.OBJ../TEMPORARY/X64/RELEASE/JELLYROGER.OBJ../TEMPORARY/X64/RELEASE/LOSESTATE.OBJ../TEMPORARY/X64/RELEASE/MAIN.OBJ../TEMPORARY/X64/RELEASE/MAINOLD.OBJ../TEMPORARY/X64/RELEASE/MENUSTATE.OBJ../TEMPORARY/X64/RELEASE/PIRANHA.OBJ../TEMPORARY/X64/RELEASE/PLAYER.OBJ../TEMPORARY/X64/RELEASE/SETTINGSSTATE.OBJ../TEMPORARY/X64/RELEASE/SHIP.OBJ../TEMPORARY/X64/RELEASE/SOUNDMANAGER.OBJ../TEMPORARY/X64/RELEASE/SPRITEMANAGER.OBJ../TEMPORARY/X64/RELEASE/STATEMANAGER.OBJ../TEMPORARY/X64/RELEASE/STDAFX.OBJ../TEMPORARY/X64/RELEASE/SWORDFISH.OBJ../TEMPORARY/X64/RELEASE/UTILITY.OBJ../TEMPORARY/X64/RELEASE/WINSTATE.OBJ
^G:\STANDARD MAPPAR\DOCUMENTS\MERRIV\TEMPORARY\X64\RELEASE\AMULET.OBJ|G:\STANDARD MAPPAR\DOCUMENTS\MERRIV\TEMPORARY\X64\RELEASE\ANIMATEDTEXTURE.OBJ|G:\STANDARD MAPPAR\DOCUMENTS\MERRIV\TEMPORARY\X64\RELEASE\BACKGROUNDELEMENT.OBJ|G:\STANDARD MAPPAR\DOCUMENTS\MERRIV\TEMPORARY\X64\RELEASE\BACKGROUNDMANAGER.OBJ|G:\STANDARD MAPPAR\DOCUMENTS\MERRIV\TEMPORARY\X64\RELEASE\BUBBLE.OBJ|G:\STANDARD MAPPAR\DOCUMENTS\MERRIV\TEMPORARY\X64\RELEASE\COIN.OBJ|G:\STANDARD MAPPAR\DOCUMENTS\MERRIV\TEMPORARY\X64\RELEASE\DRAWMANAGER.OBJ|G:\STANDARD MAPPAR\DOCUMENTS\MERRIV\TEMPORARY\X64\RELEASE\ENEMYMANAGER.OBJ|G:\STANDARD MAPPAR\DOCUMENTS\MERRIV\TEMPORARY\X64\RELEASE\ENGINE.OBJ|G:\STANDARD MAPPAR\DOCUMENTS\MERRIV\TEMPORARY\X64\RELEASE\FISHFOOD.OBJ|G:\STANDARD MAPPAR\DOCUMENTS\MERRIV\TEMPORARY\X64\RELEASE\FISHFOODPICKUP.OBJ|G:\STANDARD MAPPAR\DOCUMENTS\MERRIV\TEMPORARY\X64\RELEASE\GAMESTATE.OBJ|G:\STANDARD MAPPAR\DOCUMENTS\MERRIV\TEMPORARY\X64\RELEASE\GOLDENHARPOONPICKUP.OBJ|G:\STANDARD MAPPAR\DOCUMENTS\MERRIV\TEMPORARY\X64\RELEASE\HARPOON.OBJ|G:\STANDARD MAPPAR\DOCUMENTS\MERRIV\TEMPORARY\X64\RELEASE\ISTATE.OBJ|G:\STANDARD MAPPAR\DOCUMENTS\MERRIV\TEMPORARY\X64\RELEASE\JELLYPROJECTILE.OBJ|G:\STANDARD MAPPAR\DOCUMENTS\MERRIV\TEMPORARY\X64\RELEASE\JELLYROGER.OBJ|G:\STANDARD MAPPAR\DOCUMENTS\MERRIV\TEMPORARY\X64\RELEASE\LOSESTATE.OBJ|G:\STANDARD MAPPAR\DOCUMENTS\MERRIV\TEMPORARY\X64\RELEASE\MAIN.OBJ|G:\STANDARD MAPPAR\DOCUMENTS\MERRIV\TEMPORARY\X64\RELEASE\MAINOLD.OBJ|G:\STANDARD MAPPAR\DOCUMENTS\MERRIV\TEMPORARY\X64\RELEASE\MENUSTATE.OBJ|G:\STANDARD MAPPAR\DOCUMENTS\MERRIV\TEMPORARY\X64\RELEASE\PIRANHA.OBJ|G:\STANDARD MAPPAR\DOCUMENTS\MERRIV\TEMPORARY\X64\RELEASE\PLAYER.OBJ|G:\STANDARD MAPPAR\DOCUMENTS\MERRIV\TEMPORARY\X64\RELEASE\SETTINGSSTATE.OBJ|G:\STANDARD MAPPAR\DOCUMENTS\MERRIV\TEMPORARY\X64\RELEASE\SHIP.OBJ|G:\STANDARD MAPPAR\DOCUMENTS\MERRIV\TEMPORARY\X64\RELEASE\SOUNDMANAGER.OBJ|G:\STANDARD MAPPAR\DOCUMENTS\MERRIV\TEMPORARY\X64\RELEASE\SPRITEMANAGER.OBJ|G:\STANDARD MAPPAR\DOCUMENTS\MERRIV\TEMPORARY\X64\RELEASE\STATEMANAGER.OBJ|G:\STANDARD MAPPAR\DOCUMENTS\MERRIV\TEMPORARY\X64\RELEASE\STDAFX.OBJ|G:\STANDARD MAPPAR\DOCUMENTS\MERRIV\TEMPORARY\X64\RELEASE\SWORDFISH.OBJ|G:\STANDARD MAPPAR\DOCUMENTS\MERRIV\TEMPORARY\X64\RELEASE\UTILITY.OBJ|G:\STANDARD MAPPAR\DOCUMENTS\MERRIV\TEMPORARY\X64\RELEASE\WINSTATE.OBJ
/OUT:"../_BINARY/MERMAIDRIVER64.EXE" /INCREMENTAL:NO /NOLOGO /LIBPATH:..\EXTERNAL\VLD\LIB\WIN64 /LIBPATH:../EXTERNAL/LIB/ KERNEL32.LIB USER32.LIB GDI32.LIB WINSPOOL.LIB COMDLG32.LIB ADVAPI32.LIB SHELL32.LIB OLE32.LIB OLEAUT32.LIB UUID.LIB ODBC32.LIB ODBCCP32.LIB /MANIFEST /MANIFESTUAC:"level='asInvoker' uiAccess='false'" /manifest:embed /Debug /PDB:"../_BINARY/MERMAIDRIVER64.PDB" /SUBSYSTEM:CONSOLE /OPT:REF /OPT:ICF /LTCG:incremental /TLBID:1 /DYNAMICBASE /NXCOMPAT /IMPLIB:"../_BINARY/MERMAIDRIVER64.LIB" /MACHINE:X64 ../TEMPORARY/X64/RELEASE/AMULET.OBJ../TEMPORARY/X64/RELEASE/ANIMATEDTEXTURE.OBJ../TEMPORARY/X64/RELEASE/BACKGROUNDELEMENT.OBJ../TEMPORARY/X64/RELEASE/BACKGROUNDMANAGER.OBJ../TEMPORARY/X64/RELEASE/BUBBLE.OBJ../TEMPORARY/X64/RELEASE/COIN.OBJ../TEMPORARY/X64/RELEASE/DRAWMANAGER.OBJ../TEMPORARY/X64/RELEASE/ENEMYMANAGER.OBJ../TEMPORARY/X64/RELEASE/ENGINE.OBJ../TEMPORARY/X64/RELEASE/FISHFOOD.OBJ../TEMPORARY/X64/RELEASE/FISHFOODPICKUP.OBJ../TEMPORARY/X64/RELEASE/GAMESTATE.OBJ../TEMPORARY/X64/RELEASE/GOLDENHARPOONPICKUP.OBJ../TEMPORARY/X64/RELEASE/HARPOON.OBJ../TEMPORARY/X64/RELEASE/ISTATE.OBJ../TEMPORARY/X64/RELEASE/JELLYPROJECTILE.OBJ../TEMPORARY/X64/RELEASE/JELLYROGER.OBJ../TEMPORARY/X64/RELEASE/LOSESTATE.OBJ../TEMPORARY/X64/RELEASE/MAIN.OBJ../TEMPORARY/X64/RELEASE/MAINOLD.OBJ../TEMPORARY/X64/RELEASE/MENUSTATE.OBJ../TEMPORARY/X64/RELEASE/PIRANHA.OBJ../TEMPORARY/X64/RELEASE/PLAYER.OBJ../TEMPORARY/X64/RELEASE/SETTINGSSTATE.OBJ../TEMPORARY/X64/RELEASE/SHIP.OBJ../TEMPORARY/X64/RELEASE/SOUNDMANAGER.OBJ../TEMPORARY/X64/RELEASE/SPRITEMANAGER.OBJ../TEMPORARY/X64/RELEASE/STATEMANAGER.OBJ../TEMPORARY/X64/RELEASE/STDAFX.OBJ../TEMPORARY/X64/RELEASE/SWORDFISH.OBJ../TEMPORARY/X64/RELEASE/UTILITY.OBJ../TEMPORARY/X64/RELEASE/WINSTATE.OBJ
^C:\USERS\PHILIP\DOCUMENTS\MERRIV\TEMPORARY\X64\RELEASE\AMULET.OBJ|C:\USERS\PHILIP\DOCUMENTS\MERRIV\TEMPORARY\X64\RELEASE\ANIMATEDTEXTURE.OBJ|C:\USERS\PHILIP\DOCUMENTS\MERRIV\TEMPORARY\X64\RELEASE\BACKGROUNDELEMENT.OBJ|C:\USERS\PHILIP\DOCUMENTS\MERRIV\TEMPORARY\X64\RELEASE\BACKGROUNDMANAGER.OBJ|C:\USERS\PHILIP\DOCUMENTS\MERRIV\TEMPORARY\X64\RELEASE\BUBBLE.OBJ|C:\USERS\PHILIP\DOCUMENTS\MERRIV\TEMPORARY\X64\RELEASE\COIN.OBJ|C:\USERS\PHILIP\DOCUMENTS\MERRIV\TEMPORARY\X64\RELEASE\DRAWMANAGER.OBJ|C:\USERS\PHILIP\DOCUMENTS\MERRIV\TEMPORARY\X64\RELEASE\ENEMYMANAGER.OBJ|C:\USERS\PHILIP\DOCUMENTS\MERRIV\TEMPORARY\X64\RELEASE\ENGINE.OBJ|C:\USERS\PHILIP\DOCUMENTS\MERRIV\TEMPORARY\X64\RELEASE\FISHFOOD.OBJ|C:\USERS\PHILIP\DOCUMENTS\MERRIV\TEMPORARY\X64\RELEASE\FISHFOODPICKUP.OBJ|C:\USERS\PHILIP\DOCUMENTS\MERRIV\TEMPORARY\X64\RELEASE\GAMESTATE.OBJ|C:\USERS\PHILIP\DOCUMENTS\MERRIV\TEMPORARY\X64\RELEASE\GOLDENHARPOONPICKUP.OBJ|C:\USERS\PHILIP\DOCUMENTS\MERRIV\TEMPORARY\X64\RELEASE\HARPOON.OBJ|C:\USERS\PHILIP\DOCUMENTS\MERRIV\TEMPORARY\X64\RELEASE\HIGHSCORESTATE.OBJ|C:\USERS\PHILIP\DOCUMENTS\MERRIV\TEMPORARY\X64\RELEASE\ISTATE.OBJ|C:\USERS\PHILIP\DOCUMENTS\MERRIV\TEMPORARY\X64\RELEASE\JELLYPROJECTILE.OBJ|C:\USERS\PHILIP\DOCUMENTS\MERRIV\TEMPORARY\X64\RELEASE\JELLYROGER.OBJ|C:\USERS\PHILIP\DOCUMENTS\MERRIV\TEMPORARY\X64\RELEASE\LOADINGSTATE.OBJ|C:\USERS\PHILIP\DOCUMENTS\MERRIV\TEMPORARY\X64\RELEASE\LOSESTATE.OBJ|C:\USERS\PHILIP\DOCUMENTS\MERRIV\TEMPORARY\X64\RELEASE\MAIN.OBJ|C:\USERS\PHILIP\DOCUMENTS\MERRIV\TEMPORARY\X64\RELEASE\MAINOLD.OBJ|C:\USERS\PHILIP\DOCUMENTS\MERRIV\TEMPORARY\X64\RELEASE\MENUSTATE.OBJ|C:\USERS\PHILIP\DOCUMENTS\MERRIV\TEMPORARY\X64\RELEASE\PIRANHA.OBJ|C:\USERS\PHILIP\DOCUMENTS\MERRIV\TEMPORARY\X64\RELEASE\PLAYER.OBJ|C:\USERS\PHILIP\DOCUMENTS\MERRIV\TEMPORARY\X64\RELEASE\POWERUPHUD.OBJ|C:\USERS\PHILIP\DOCUMENTS\MERRIV\TEMPORARY\X64\RELEASE\SCOREMANAGER.OBJ|C:\USERS\PHILIP\DOCUMENTS\MERRIV\TEMPORARY\X64\RELEASE\SETTINGSSTATE.OBJ|C:\USERS\PHILIP\DOCUMENTS\MERRIV\TEMPORARY\X64\RELEASE\SHIP.OBJ|C:\USERS\PHILIP\DOCUMENTS\MERRIV\TEMPORARY\X64\RELEASE\SOUNDMANAGER.OBJ|C:\USERS\PHILIP\DOCUMENTS\MERRIV\TEMPORARY\X64\RELEASE\SPRITEMANAGER.OBJ|C:\USERS\PHILIP\DOCUMENTS\MERRIV\TEMPORARY\X64\RELEASE\STATEMANAGER.OBJ|C:\USERS\PHILIP\DOCUMENTS\MERRIV\TEMPORARY\X64\RELEASE\STDAFX.OBJ|C:\USERS\PHILIP\DOCUMENTS\MERRIV\TEMPORARY\X64\RELEASE\SWORDFISH.OBJ|C:\USERS\PHILIP\DOCUMENTS\MERRIV\TEMPORARY\X64\RELEASE\UTILITY.OBJ|C:\USERS\PHILIP\DOCUMENTS\MERRIV\TEMPORARY\X64\RELEASE\WINSTATE.OBJ
/OUT:"../_BINARY/MERMAIDRIVER64.EXE" /INCREMENTAL:NO /NOLOGO /LIBPATH:..\EXTERNAL\VLD\LIB\WIN64 /LIBPATH:../EXTERNAL/LIB/ KERNEL32.LIB USER32.LIB GDI32.LIB WINSPOOL.LIB COMDLG32.LIB ADVAPI32.LIB SHELL32.LIB OLE32.LIB OLEAUT32.LIB UUID.LIB ODBC32.LIB ODBCCP32.LIB /MANIFEST /MANIFESTUAC:"level='asInvoker' uiAccess='false'" /manifest:embed /Debug /PDB:"../_BINARY/MERMAIDRIVER64.PDB" /SUBSYSTEM:CONSOLE /OPT:REF /OPT:ICF /LTCG:incremental /TLBID:1 /DYNAMICBASE /NXCOMPAT /IMPLIB:"../_BINARY/MERMAIDRIVER64.LIB" /MACHINE:X64 ../TEMPORARY/X64/RELEASE/AMULET.OBJ../TEMPORARY/X64/RELEASE/ANIMATEDTEXTURE.OBJ../TEMPORARY/X64/RELEASE/BACKGROUNDELEMENT.OBJ../TEMPORARY/X64/RELEASE/BACKGROUNDMANAGER.OBJ../TEMPORARY/X64/RELEASE/BUBBLE.OBJ../TEMPORARY/X64/RELEASE/COIN.OBJ../TEMPORARY/X64/RELEASE/DRAWMANAGER.OBJ../TEMPORARY/X64/RELEASE/ENEMYMANAGER.OBJ../TEMPORARY/X64/RELEASE/ENGINE.OBJ../TEMPORARY/X64/RELEASE/FISHFOOD.OBJ../TEMPORARY/X64/RELEASE/FISHFOODPICKUP.OBJ../TEMPORARY/X64/RELEASE/GAMESTATE.OBJ../TEMPORARY/X64/RELEASE/GOLDENHARPOONPICKUP.OBJ../TEMPORARY/X64/RELEASE/HARPOON.OBJ../TEMPORARY/X64/RELEASE/HIGHSCORESTATE.OBJ../TEMPORARY/X64/RELEASE/ISTATE.OBJ../TEMPORARY/X64/RELEASE/JELLYPROJECTILE.OBJ../TEMPORARY/X64/RELEASE/JELLYROGER.OBJ../TEMPORARY/X64/RELEASE/LOADINGSTATE.OBJ../TEMPORARY/X64/RELEASE/LOSESTATE.OBJ../TEMPORARY/X64/RELEASE/MAIN.OBJ../TEMPORARY/X64/RELEASE/MAINOLD.OBJ../TEMPORARY/X64/RELEASE/MENUSTATE.OBJ../TEMPORARY/X64/RELEASE/PIRANHA.OBJ../TEMPORARY/X64/RELEASE/PLAYER.OBJ../TEMPORARY/X64/RELEASE/POWERUPHUD.OBJ../TEMPORARY/X64/RELEASE/SCOREMANAGER.OBJ../TEMPORARY/X64/RELEASE/SETTINGSSTATE.OBJ../TEMPORARY/X64/RELEASE/SHIP.OBJ../TEMPORARY/X64/RELEASE/SOUNDMANAGER.OBJ../TEMPORARY/X64/RELEASE/SPRITEMANAGER.OBJ../TEMPORARY/X64/RELEASE/STATEMANAGER.OBJ../TEMPORARY/X64/RELEASE/STDAFX.OBJ../TEMPORARY/X64/RELEASE/SWORDFISH.OBJ../TEMPORARY/X64/RELEASE/UTILITY.OBJ../TEMPORARY/X64/RELEASE/WINSTATE.OBJ
